{
    //Icon Theme installieren: VS Code Great Icons
    "workbench.colorTheme": "Default Light+",
    "workbench.colorCustomizations": {
        "[Default Light+]": {

            //Activity Bar
            "activityBar.foreground": "#777",
            "activityBar.background": "#f8f8f8",

            //Sidebar
            "sideBar.background": "#f2f2f2",
            "sideBarSectionHeader.background": "#f2f2f2",
            "sideBarSectionHeader.foreground": "#000",
            //Sidebar marked Elements
            "list.activeSelectionForeground":"#000",
            "list.activeSelectionBackground":"#cae9f8",
            "list.inactiveSelectionBackground":"#cae9f8",
            
            //Textfield
            "editor.background":  "#f8f8f8",
            
            //Tabs
            "tab.activeBackground": "#f7f7f7",
            "tab.inactiveBackground": "#f2f2f2",
            "editorGroupHeader.tabsBackground": "#f2f2f2",

            //Hints
            "statusBar.background":"#e9e9e9",
            "statusBar.foreground":"#777",
            "activityBarBadge.background":"#5f92ff",
        }
    },
    "workbench.iconTheme": "vscode-great-icons"
}
